{
  "schemaVersion": "1.0.0",
  "modules": [
    {
      "kind": "class",
      "description": "An random user list component.",
      "name": "RandomUsers",
      "members": [
        {
          "kind": "method",
          "name": "_renderUser",
          "parameters": [
            {
              "name": "user",
              "default": "{}"
            }
          ]
        },
        {
          "kind": "method",
          "name": "_syncState",
          "description": "Private"
        },
        {
          "kind": "method",
          "name": "toggleTheme",
          "description": "Public"
        },
        {
          "kind": "method",
          "name": "requestNextPage"
        },
        {
          "kind": "field",
          "name": "pageSize",
          "type": {
            "text": "number"
          },
          "description": "Attribute",
          "default": "10",
          "privacy": "public",
          "attribute": "pageSize",
          "reflects": true
        },
        {
          "kind": "field",
          "name": "_userList",
          "type": {
            "text": "type: Array"
          },
          "description": "State",
          "default": "[]",
          "privacy": "public",
          "attribute": "_userList"
        },
        {
          "kind": "field",
          "name": "__api",
          "type": {
            "text": "string"
          },
          "default": "'https://randomuser.me/api/'"
        },
        {
          "kind": "field",
          "name": "__worker",
          "default": "new Worker(\n      '/components/random-users/src/RandomUsers.worker.js'\n    )"
        },
        {
          "kind": "field",
          "name": "__workerService"
        }
      ],
      "events": [
        {
          "name": "sync-state",
          "type": {
            "text": "CustomEvent"
          },
          "description": "Dispatched on _syncState ends."
        },
        {
          "name": "user-list-changed",
          "type": {
            "text": "CustomEvent"
          },
          "description": "Dispatched on _userList update."
        },
        {
          "name": "toggle-theme",
          "type": {
            "text": "CustomEvent"
          },
          "description": "Dispatched on toggleTheme ends."
        },
        {
          "name": "request-next-page",
          "type": {
            "text": "CustomEvent"
          },
          "description": "Dispatched on requestNextPage ends."
        }
      ],
      "attributes": [
        {
          "type": {
            "text": "Number"
          },
          "description": "Attribute",
          "name": "pageSize",
          "fieldName": "pageSize"
        },
        {
          "name": "_userList",
          "description": "State",
          "fieldName": "_userList"
        }
      ],
      "superclass": {
        "name": "LitElement",
        "package": "lit"
      },
      "tagName": "random-users",
      "customElement": true
    }
  ]
}
